P8105_hw3_rc3521
================
Runze Cui
2022-10-11

## Problem 1

``` r
data("instacart")
instacart
```

    ## # A tibble: 1,384,617 × 15
    ##    order_id product_id add_to_…¹ reord…² user_id eval_…³ order…⁴ order…⁵ order…⁶
    ##       <int>      <int>     <int>   <int>   <int> <chr>     <int>   <int>   <int>
    ##  1        1      49302         1       1  112108 train         4       4      10
    ##  2        1      11109         2       1  112108 train         4       4      10
    ##  3        1      10246         3       0  112108 train         4       4      10
    ##  4        1      49683         4       0  112108 train         4       4      10
    ##  5        1      43633         5       1  112108 train         4       4      10
    ##  6        1      13176         6       0  112108 train         4       4      10
    ##  7        1      47209         7       0  112108 train         4       4      10
    ##  8        1      22035         8       1  112108 train         4       4      10
    ##  9       36      39612         1       0   79431 train        23       6      18
    ## 10       36      19660         2       1   79431 train        23       6      18
    ## # … with 1,384,607 more rows, 6 more variables: days_since_prior_order <int>,
    ## #   product_name <chr>, aisle_id <int>, department_id <int>, aisle <chr>,
    ## #   department <chr>, and abbreviated variable names ¹​add_to_cart_order,
    ## #   ²​reordered, ³​eval_set, ⁴​order_number, ⁵​order_dow, ⁶​order_hour_of_day
…
Description of the panel plots: During 12-6AM, activity is the lowest
probably because this is sleeping time, while the activity counts up to
the highest at 8-10 pm for weekday, and around 12pm for weekend.

## Problem 3

``` r
data("ny_noaa")
ny_noaa
```

    ## # A tibble: 2,595,176 × 7
    ##    id          date        prcp  snow  snwd tmax  tmin 
    ##    <chr>       <date>     <int> <int> <int> <chr> <chr>
    ##  1 US1NYAB0001 2007-11-01    NA    NA    NA <NA>  <NA> 
    ##  2 US1NYAB0001 2007-11-02    NA    NA    NA <NA>  <NA> 
    ##  3 US1NYAB0001 2007-11-03    NA    NA    NA <NA>  <NA> 
    ##  4 US1NYAB0001 2007-11-04    NA    NA    NA <NA>  <NA> 
    ##  5 US1NYAB0001 2007-11-05    NA    NA    NA <NA>  <NA> 
    ##  6 US1NYAB0001 2007-11-06    NA    NA    NA <NA>  <NA> 
    ##  7 US1NYAB0001 2007-11-07    NA    NA    NA <NA>  <NA> 
    ##  8 US1NYAB0001 2007-11-08    NA    NA    NA <NA>  <NA> 
    ##  9 US1NYAB0001 2007-11-09    NA    NA    NA <NA>  <NA> 
    ## 10 US1NYAB0001 2007-11-10    NA    NA    NA <NA>  <NA> 
    ## # … with 2,595,166 more rows
…
          "04" = "April",
          "05" = "May",
          "06" = "June",
          "07" = "July",
          "08" = "August",
          "09" = "September",
          "10" = "October",
          "11" = "November",
          "12" = "December"
    )) %>% 
  relocate(year, month, day, everything())
noaa_df
```

    ## # A tibble: 2,595,176 × 9
    ##     year month      day id           prcp  snow  snwd  tmax  tmin
    ##    <dbl> <chr>    <dbl> <chr>       <dbl> <int> <int> <dbl> <dbl>
    ##  1  2007 November     1 US1NYAB0001    NA    NA    NA    NA    NA
    ##  2  2007 November     2 US1NYAB0001    NA    NA    NA    NA    NA
    ##  3  2007 November     3 US1NYAB0001    NA    NA    NA    NA    NA
    ##  4  2007 November     4 US1NYAB0001    NA    NA    NA    NA    NA
    ##  5  2007 November     5 US1NYAB0001    NA    NA    NA    NA    NA
    ##  6  2007 November     6 US1NYAB0001    NA    NA    NA    NA    NA
    ##  7  2007 November     7 US1NYAB0001    NA    NA    NA    NA    NA
    ##  8  2007 November     8 US1NYAB0001    NA    NA    NA    NA    NA
    ##  9  2007 November     9 US1NYAB0001    NA    NA    NA    NA    NA
    ## 10  2007 November    10 US1NYAB0001    NA    NA    NA    NA    NA
    ## # … with 2,595,166 more rows

Common observed value finding:

``` r
noaa_df %>% 
  count(snow) %>%
  arrange(desc(n))
```

    ## # A tibble: 282 × 2
    ##     snow       n
    ##    <int>   <int>
    ##  1     0 2008508
    ##  2    NA  381221
    ##  3    25   31022
    ##  4    13   23095
    ##  5    51   18274
    ##  6    76   10173
    ##  7     8    9962
    ##  8     5    9748
    ##  9    38    9197
    ## 10     3    8790
    ## # … with 272 more rows
…
